PalaeoOpen ordination exercise
…
Print the data we downloaded; you should note that this is stored as a tibble, a fancy data frame, and that only 10 rows are shown, and only as many columns as can be fitted into the width of the R console.

diatoms
## # A tibble: 218 × 37
##    name  S567723 S567734 S567743 S567749 S567755 S567728 S567738 S567748 S567725
##    <chr> <chr>   <chr>   <chr>   <chr>   <chr>   <chr>   <chr>   <chr>   <chr>  
##  1 Anal… <NA>    <NA>    <NA>    <NA>    <NA>    <NA>    <NA>    <NA>    <NA>   
##  2 Depth 1490.25 1550.25 1610.25 1640.25 1698.25 1505.25 1560.25 1630.25 1525.25
##  3 Thic… 0.5     0.5     0.5     0.5     0.5     0.5     0.5     0.5     0.5    
##  4 Samp… <NA>    <NA>    <NA>    <NA>    <NA>    <NA>    <NA>    <NA>    <NA>   
##  5 Samp… 567723  567734  567743  567749  567755  567728  567738  567748  567725 
##  6 Upda… --/207… --/325… --/701… --/845… --/114… --/827… --/382… --/798… --/192…
##  7 Achn… <NA>    <NA>    <NA>    <NA>    <NA>    <NA>    <NA>    <NA>    <NA>   
##  8 Achn… <NA>    <NA>    <NA>    5       <NA>    <NA>    <NA>    <NA>    <NA>   
##  9 Achn… <NA>    1       3       1       <NA>    <NA>    <NA>    <NA>    <NA>   
## 10 Achn… <NA>    <NA>    <NA>    <NA>    <NA>    <NA>    <NA>    <NA>    <NA>   
## # ℹ 208 more rows
## # ℹ 27 more variables: S567732 <chr>, S567741 <chr>, S567751 <chr>,
## #   S567726 <chr>, S567735 <chr>, S567747 <chr>, S567729 <chr>, S567733 <chr>,
## #   S567744 <chr>, S567754 <chr>, S567721 <chr>, S567731 <chr>, S567740 <chr>,
## #   S567752 <chr>, S567720 <chr>, S567730 <chr>, S567737 <chr>, S567746 <chr>,
## #   S567722 <chr>, S567742 <chr>, S567753 <chr>, S567724 <chr>, S567736 <chr>,
## #   S567745 <chr>, S567727 <chr>, S567739 <chr>, S567750 <chr>
…
Take a look at what you have created

diat_meta
## # A tibble: 36 × 5
##    identifier depth_cm thickness_cm sample_id calibrated_age
##    <chr>         <dbl>        <dbl> <chr>              <dbl>
##  1 S567720       1478.          1   567720               -60
##  2 S567721       1486.          1   567721                60
##  3 S567723       1490.          0.5 567723               207
##  4 S567724       1495.          0.5 567724               379
##  5 S567722       1500.          0.5 567722               578
##  6 S567728       1505.          0.5 567728               827
##  7 S567727       1510.          0.5 567727              1097
##  8 S567729       1517.          0.5 567729              1506
##  9 S567726       1520.          0.5 567726              1670
## 10 S567725       1525.          0.5 567725              1928
## # ℹ 26 more rows
…
Similarly we can do the same for the diatoms and pollen

diat_meta |> semi_join(
  pollen_meta,
  by = join_by("depth_cm")
)
## # A tibble: 33 × 5
##    identifier depth_cm thickness_cm sample_id calibrated_age
##    <chr>         <dbl>        <dbl> <chr>              <dbl>
##  1 S567720       1478.          1   567720               -60
##  2 S567723       1490.          0.5 567723               207
##  3 S567724       1495.          0.5 567724               379
##  4 S567722       1500.          0.5 567722               578
##  5 S567728       1505.          0.5 567728               827
##  6 S567727       1510.          0.5 567727              1097
##  7 S567729       1517.          0.5 567729              1506
##  8 S567726       1520.          0.5 567726              1670
##  9 S567725       1525.          0.5 567725              1928
## 10 S567730       1530.          0.5 567730              2176
## # ℹ 23 more rows
…
