PalaeoOpen GAM exercise 2
…
Lake 227

The data we will look at are from Lake 227 in the Experimental Lakes Area (ELA), Ontario, Canada. This lake is annually laminated, and Peter Leavitt (Regina) measured the sedimentary pigment values in the lake to compare them with the algal records for the monitoring data in the lake.

These data were also used by Cottingham et al (2000 Ecology Letters) in an early statistical approach to modelling changes in variance of an ecosystem, using a Levene’s test splitting the time series in to before and after (or rather during) experimental manipulation.

In this exmaple, we’ll model the sediment concentrations of several algal pigments in a single GAM using a distributional model to include linear predictors for all of the parameters of the conditional distribution of the response.

Load data

Load the data from the provide Excel workbook:

lake227 <- read_excel(here("00-data/lake-227.xlsx"))
lake227
## # A tibble: 62 × 45
##     YEAR PERORG EXTRCTWT PERACCUM  CHLC PEREDINI PHEOB_B  FUCO NEOXANTH PHEOB_A
##    <dbl>  <dbl>    <dbl>    <dbl> <dbl>    <dbl>   <dbl> <dbl>    <dbl>   <dbl>
##  1  1990   78.4      4.8     3.66  32.2    10.5     71.3 104.      184.    293.
##  2  1989   78.4      4.8    14.1   36.5    11.8     73.2 116.      240.    247.
##  3  1988   72.4      3.9    16.7   16.0     4.29    35.4  65.5     211.    167.
##  4  1987   71.0      4.9     7.38  14.6     4.44    90.2  49.8     270.    225.
##  5  1986   68.8      4.3     7.72  11.5    10.4     90.3  72.7     342.    258.
##  6  1985   59.6      3.6     8.84  11.8     0       85.3  44.7     210.    162.
##  7  1984   52.6      3.6     3.73  33.7    11.0     88.9  67.6     621.    257.
##  8  1983   64        2.4     4.63  32.4    11.3     79.0  61.8     577.    285.
##  9  1982   66.7      2.7     6.97  18.8    21.1    110.   76.9     693.    328.
## 10  1981   70        3.3     8.03  14.7     7.56    87.9  40.0     371.    163.
## # ℹ 52 more rows
## # ℹ 35 more variables: OSCILLAX <dbl>, STANDARD <dbl>, MYXO <dbl>,
## #   CHLONE <dbl>, ALLOX <dbl>, LUTZEAX <dbl>, CAROT1 <dbl>, CHLB <dbl>,
## #   CHLA <dbl>, ECHINENO <dbl>, PHEO_B <dbl>, ACAROT <dbl>, PHEO_A <dbl>,
## #   BCAROT <dbl>, EXPECT <dbl>, RATIO <dbl>, ACHLC <dbl>, APEREDIN <dbl>,
## #   APHEOB_B <dbl>, AFUCO <dbl>, ANEOX <dbl>, APHEOB_A <dbl>, AOSCILL <dbl>,
## #   AMYXO <dbl>, ACHLONE <dbl>, AALLOX <dbl>, ALUT <dbl>, ACAROT1 <dbl>, …
…
Next, we use the fitted_values() function to generate model estimates for each parameter of the distribution for each of the data values in ds:

fv <- mtwlss |>
  fitted_values(
    data = ds
  )

If we look at what is produced

fv
## # A tibble: 1,500 × 6
##     .row .parameter  .fitted      .se .lower_ci .upper_ci
##    <int> <chr>         <dbl>    <dbl>     <dbl>     <dbl>
##  1     1 location   114.     9.52e- 2  137.      94.6    
##  2     1 power        1.99   4.45e+14    1.99     1.01   
##  3     1 scale        0.0181 5.11e- 1    0.0494   0.00666
##  4     2 location    92.9    1.72e- 1  130.      66.2    
##  5     2 power        1.99   4.45e+14    1.99     1.01   
##  6     2 scale        0.0751 5.11e- 1    0.205    0.0276 
##  7     3 location    35.4    9.16e- 2   42.4     29.6    
##  8     3 power        1.99   4.45e+14    1.99     1.01   
##  9     3 scale        0.0170 5.08e- 1    0.0461   0.00629
## 10     4 location   150.     6.06e- 2  168.     133.     
## # ℹ 1,490 more rows
…
